Midterm Report
…
cut.obs <- cutree(clust.scaled, 3)
#Cluster 1
sc_clust1 <- taipei_data[cut.obs == 1,]
#Cluster 2
sc_clust2 <- taipei_data[cut.obs == 2,]
#Cluster 3
sc_clust3 <- taipei_data[cut.obs == 3,]

sc_clust1

## # A tibble: 377 x 7
##    transaction_date house_age distance_mrt conv_stores latitude longitude
##               <dbl>     <dbl>        <dbl>       <dbl>    <dbl>     <dbl>
##  1            2013.      32           84.9          10     25.0      122.
##  2            2013.      19.5        307.            9     25.0      122.
##  3            2014.      13.3        562.            5     25.0      122.
##  4            2014.      13.3        562.            5     25.0      122.
##  5            2013.       5          391.            5     25.0      122.
##  6            2013.       7.1       2175.            3     25.0      122.
##  7            2013.      34.5        623.            7     25.0      122.
##  8            2013.      20.3        288.            6     25.0      122.
##  9            2013.      17.9       1783.            3     25.0      122.
## 10            2013.      34.8        405.            1     25.0      122.
## # ... with 367 more rows, and 1 more variable: house_price <dbl>

sc_clust2

## # A tibble: 36 x 7
##    transaction_date house_age distance_mrt conv_stores latitude longitude
##               <dbl>     <dbl>        <dbl>       <dbl>    <dbl>     <dbl>
##  1            2014.      31.7        5512.           1     25.0      121.
##  2            2014.      25.9        4520.           0     24.9      121.
##  3            2013       13.6        4082.           0     24.9      122.
##  4            2014.      16.8        4067.           0     24.9      122.
##  5            2013.      24.2        4606.           0     24.9      121.
##  6            2013.      29.4        4510.           1     24.9      121.
##  7            2014.      30.3        4510.           1     24.9      121.
##  8            2013.      13.8        4082.           0     24.9      122.
##  9            2014.      16.9        4067.           0     24.9      122.
## 10            2014.      23          3948.           0     24.9      122.
## # ... with 26 more rows, and 1 more variable: house_price <dbl>
…
cut.obs2 <- cutree(clust.scaled, 2)
#Cluster 1
sc_clust4 <- taipei_data[cut.obs2 == 1,]
#Cluster 2
sc_clust5 <- taipei_data[cut.obs2 == 2,]

sc_clust4

## # A tibble: 378 x 7
##    transaction_date house_age distance_mrt conv_stores latitude longitude
##               <dbl>     <dbl>        <dbl>       <dbl>    <dbl>     <dbl>
##  1            2013.      32           84.9          10     25.0      122.
##  2            2013.      19.5        307.            9     25.0      122.
##  3            2014.      13.3        562.            5     25.0      122.
##  4            2014.      13.3        562.            5     25.0      122.
##  5            2013.       5          391.            5     25.0      122.
##  6            2013.       7.1       2175.            3     25.0      122.
##  7            2013.      34.5        623.            7     25.0      122.
##  8            2013.      20.3        288.            6     25.0      122.
##  9            2013.      17.9       1783.            3     25.0      122.
## 10            2013.      34.8        405.            1     25.0      122.
## # ... with 368 more rows, and 1 more variable: house_price <dbl>

sc_clust5

## # A tibble: 36 x 7
##    transaction_date house_age distance_mrt conv_stores latitude longitude
##               <dbl>     <dbl>        <dbl>       <dbl>    <dbl>     <dbl>
##  1            2014.      31.7        5512.           1     25.0      121.
##  2            2014.      25.9        4520.           0     24.9      121.
##  3            2013       13.6        4082.           0     24.9      122.
##  4            2014.      16.8        4067.           0     24.9      122.
##  5            2013.      24.2        4606.           0     24.9      121.
##  6            2013.      29.4        4510.           1     24.9      121.
##  7            2014.      30.3        4510.           1     24.9      121.
##  8            2013.      13.8        4082.           0     24.9      122.
##  9            2014.      16.9        4067.           0     24.9      122.
## 10            2014.      23          3948.           0     24.9      122.
## # ... with 26 more rows, and 1 more variable: house_price <dbl>
…
